// room script file

function hHotspot1_Interact()
{
  player.ChangeRoom(3);
}

function hHotspot2_Interact()
{
  if (TransporterCheck < 20)
  {
    if (TransporterCheck == 0)
    {
        TransporterCheck = TransporterCheck + 15;
        player.Say("I've rerouted power to the Transporter");
        return;
    }
    else if (TransporterCheck > 15)
    {
        TransporterCheck = TransporterCheck + 4;
        player.Say("I've rerouted power to the Transporter");
        return;
    }
    
  }
  if (TransporterCheck == 15)
  {
      player.Say("Transporter is already powered.");
      player.Say("The Control Unit is still missing though.");
  }
  if (TransporterCheck == 20)
  {
      player.Say("Transporter is fully functional");
  }
}

function hHotspot2_Look()
{
  player.Say("It's the main computer.");
}

function hHotspot2_Talk()
{
  player.Say("It's not voice activated.");
}

function hHotspot2_UseInv()
{
  if (player.ActiveInventory == iTrans)
  {
      player.Say("I need to use that at the transporter control panel, not here.");
  }
  else if (player.ActiveInventory == iUSB)
  {
      player.Say("There's no USB port on the main computer terminal...");
      player.Say("Something about secutrity.");
      player.Say("But it has a 3.5 inch floppy drive.");
      player.Say("Go figure...");
  }
  else
  {
      player.Say(defaultInventory);
  }
}

function hHotspot5_Interact()
{
  player.Say("It's only givig static.");
}

function hHotspot3_Interact()
{
  player.Say("I've disabled the Red Alert signal.");
}

function hHotspot3_Look()
{
  if (TacticalCheck == 0)
  {
    player.Say("This is the Tactical Console.");
    TacticalCheck = TacticalCheck + 1;
  }
  else if (TacticalCheck == 1)
  {
    player.Say("From here you can fire the weapons.");
    TacticalCheck = TacticalCheck + 1;
  }
  else if (TacticalCheck == 2)
  {
    player.Say("Weapons are inactive.");
    TacticalCheck = 1;
  }
}

function hHotspot3_Talk()
{
  player.Say(noResponse);
}

function hHotspot4_Look()
{
  player.Say("Helm is offline");
}

function hHotspot4_Talk()
{
  player.Say(noResponse);
}

function hHotspot4_Interact()
{
  if (player.InventoryQuantity[iUSB.ID] == 0)
  {
    player.Say("I can access the captian's log from here.");
    player.AddInventory(iUSB);
  }
  else
  {
      player.Say("The helm is dead.");
  }
}

function hHotspot4_UseInv()
{
  if (player.ActiveInventory == iUSB)
  {
      player.Say("The Captain's log cannot be played on this console.");
  }
  else if (player.ActiveInventory == ihAshes)
  {
    String ng = hHotspot4.GetTextProperty(String.Format("HelmAshes_%d", HelmAshesCheck));
    player.Say(ng);
    if (HelmAshesCheck < 4) {
      HelmAshesCheck += 1;
    }
  }
  else
  {
      player.Say(defaultInventory);
  }
}
